,CPU,MEMORY,TS,time
0,2.1,37.1,2022-07-21 09:34:57.437963,9.456721
1,1.0,37.1,2022-07-21 09:34:59.441153,11.459911
2,2.1,37.1,2022-07-21 09:35:01.444752,13.46351
3,4.1,37.1,2022-07-21 09:35:03.447861,15.466619
4,3.0,37.1,2022-07-21 09:35:05.451517,17.470275
5,1.0,37.1,2022-07-21 09:35:07.455464,19.474222
6,2.1,37.1,2022-07-21 09:35:09.457981,21.476739
7,2.1,37.1,2022-07-21 09:35:11.460467,23.479225
8,2.1,37.1,2022-07-21 09:35:13.463540,25.482298
9,4.1,37.1,2022-07-21 09:35:15.467515,27.486273
10,3.1,37.1,2022-07-21 09:35:17.470663,29.489421
11,1.0,37.1,2022-07-21 09:35:19.473362,31.49212
12,1.0,37.1,2022-07-21 09:35:21.475978,33.494736
13,3.1,37.1,2022-07-21 09:35:23.478671,35.497429
14,0.0,37.1,2022-07-21 09:35:25.481878,37.500636
15,2.0,37.1,2022-07-21 09:35:27.484238,39.502996
16,2.1,37.1,2022-07-21 09:35:29.488749,41.507507
17,1.0,37.1,2022-07-21 09:35:31.492334,43.511092
18,1.1,37.1,2022-07-21 09:35:33.494740,45.513498
19,3.1,37.1,2022-07-21 09:35:35.497866,47.516624
20,0.0,37.1,2022-07-21 09:35:37.501328,49.520086
21,3.1,37.1,2022-07-21 09:35:39.504932,51.52369
22,2.0,37.1,2022-07-21 09:35:41.508680,53.527438
23,2.0,37.1,2022-07-21 09:35:43.510566,55.529324
24,1.0,37.1,2022-07-21 09:35:45.513400,57.532158
25,2.1,37.1,2022-07-21 09:35:47.524298,59.543056
26,1.0,37.1,2022-07-21 09:35:49.528839,61.547597
27,3.1,37.1,2022-07-21 09:35:51.531677,63.550435
28,1.0,37.1,2022-07-21 09:35:53.535385,65.554143
29,2.0,37.1,2022-07-21 09:35:55.538775,67.557533
30,2.1,37.1,2022-07-21 09:35:57.541290,69.560048
31,2.1,37.1,2022-07-21 09:35:59.544382,71.56314
32,2.1,37.1,2022-07-21 09:36:01.545929,73.564687
33,3.1,37.1,2022-07-21 09:36:03.548691,75.567449
34,0.0,37.1,2022-07-21 09:36:05.551311,77.570069
35,0.0,37.1,2022-07-21 09:36:07.553794,79.572552
36,2.1,37.1,2022-07-21 09:36:09.557383,81.576141
37,4.1,37.1,2022-07-21 09:36:11.562293,83.581051
38,2.1,37.1,2022-07-21 09:36:13.566334,85.585092
39,3.1,37.1,2022-07-21 09:36:15.570558,87.589316
40,1.0,37.1,2022-07-21 09:36:17.573842,89.5926
41,4.2,37.1,2022-07-21 09:36:19.576650,91.595408
42,73.0,37.3,2022-07-21 09:36:21.578536,93.597294
43,100.0,37.5,2022-07-21 09:36:23.580861,95.599619
44,100.0,37.6,2022-07-21 09:36:25.583466,97.602224
45,100.0,37.6,2022-07-21 09:36:27.586004,99.604762
46,100.0,37.7,2022-07-21 09:36:29.588815,101.607573
47,100.0,37.8,2022-07-21 09:36:31.591495,103.610253
48,100.0,37.7,2022-07-21 09:36:33.594429,105.613187
49,100.0,37.7,2022-07-21 09:36:35.597413,107.616171
50,100.0,37.8,2022-07-21 09:36:37.600083,109.618841
51,100.0,37.8,2022-07-21 09:36:39.602182,111.62094
52,100.0,37.8,2022-07-21 09:36:41.604825,113.623583
53,100.0,37.8,2022-07-21 09:36:43.607479,115.626237
54,100.0,37.8,2022-07-21 09:36:45.610007,117.628765
55,100.0,37.9,2022-07-21 09:36:47.612788,119.631546
56,100.0,37.9,2022-07-21 09:36:49.616375,121.635133
57,100.0,37.8,2022-07-21 09:36:51.618259,123.637017
58,100.0,37.9,2022-07-21 09:36:53.620864,125.639622
59,100.0,37.8,2022-07-21 09:36:55.623410,127.642168
60,100.0,37.8,2022-07-21 09:36:57.626854,129.645612
61,100.0,37.9,2022-07-21 09:36:59.628932,131.64769
62,100.0,37.9,2022-07-21 09:37:01.631575,133.650333
63,100.0,37.9,2022-07-21 09:37:03.634648,135.653406
64,100.0,37.9,2022-07-21 09:37:05.636958,137.655716
65,100.0,37.9,2022-07-21 09:37:07.639999,139.658757
66,100.0,37.9,2022-07-21 09:37:09.642021,141.660779
67,100.0,37.9,2022-07-21 09:37:11.646935,143.665693
68,100.0,37.9,2022-07-21 09:37:13.649094,145.667852
69,100.0,38.0,2022-07-21 09:37:15.653266,147.672024
70,100.0,38.0,2022-07-21 09:37:17.655970,149.674728
71,100.0,38.0,2022-07-21 09:37:19.658350,151.677108
72,100.0,38.0,2022-07-21 09:37:21.660940,153.679698
73,100.0,38.0,2022-07-21 09:37:23.663606,155.682364
74,100.0,38.1,2022-07-21 09:37:25.666094,157.684852
75,100.0,38.2,2022-07-21 09:37:27.668856,159.687614
76,100.0,38.3,2022-07-21 09:37:29.672091,161.690849
77,100.0,38.3,2022-07-21 09:37:31.674158,163.692916
78,100.0,38.3,2022-07-21 09:37:33.676686,165.695444
79,100.0,38.3,2022-07-21 09:37:35.679607,167.698365
80,100.0,38.3,2022-07-21 09:37:37.682756,169.701514
81,100.0,38.3,2022-07-21 09:37:39.684919,171.703677
82,100.0,38.2,2022-07-21 09:37:41.704974,173.723732
83,100.0,38.2,2022-07-21 09:37:43.707598,175.726356
84,100.0,38.3,2022-07-21 09:37:45.710028,177.728786
85,100.0,38.3,2022-07-21 09:37:47.713075,179.731833
86,100.0,38.3,2022-07-21 09:37:49.715794,181.734552
87,100.0,38.3,2022-07-21 09:37:51.718411,183.737169
88,100.0,38.3,2022-07-21 09:37:53.720897,185.739655
89,100.0,38.3,2022-07-21 09:37:55.723516,187.742274
90,100.0,38.3,2022-07-21 09:37:57.726209,189.744967
91,100.0,38.3,2022-07-21 09:37:59.728950,191.747708
92,100.0,38.3,2022-07-21 09:38:01.731605,193.750363
93,100.0,38.3,2022-07-21 09:38:03.734037,195.752795
94,100.0,38.3,2022-07-21 09:38:05.736754,197.755512
95,100.0,38.3,2022-07-21 09:38:07.864902,199.88366
96,100.0,38.3,2022-07-21 09:38:09.867634,201.886392
97,100.0,38.3,2022-07-21 09:38:11.870198,203.888956
98,100.0,38.3,2022-07-21 09:38:13.872984,205.891742
99,100.0,38.3,2022-07-21 09:38:15.875707,207.894465
100,100.0,38.3,2022-07-21 09:38:17.878067,209.896825
101,100.0,38.3,2022-07-21 09:38:19.880869,211.899627
102,100.0,38.3,2022-07-21 09:38:21.883991,213.902749
103,100.0,38.3,2022-07-21 09:38:23.886189,215.904947
104,100.0,38.3,2022-07-21 09:38:25.889340,217.908098
105,100.0,38.3,2022-07-21 09:38:27.891963,219.910721
106,100.0,38.3,2022-07-21 09:38:29.894177,221.912935
107,100.0,38.3,2022-07-21 09:38:31.897343,223.916101
108,100.0,38.4,2022-07-21 09:38:33.899918,225.918676
109,100.0,38.4,2022-07-21 09:38:35.902322,227.92108
110,100.0,38.4,2022-07-21 09:38:37.905328,229.924086
111,100.0,38.3,2022-07-21 09:38:39.908176,231.926934
112,1.1,38.2,2022-07-21 09:38:41.910094,233.928852
113,0.0,38.2,2022-07-21 09:38:43.913590,235.932348
114,1.0,38.2,2022-07-21 09:38:45.916788,237.935546
115,2.0,38.2,2022-07-21 09:38:47.919515,239.938273
116,0.0,38.2,2022-07-21 09:38:49.921803,241.940561
117,2.1,38.2,2022-07-21 09:38:51.925006,243.943764
118,2.0,38.2,2022-07-21 09:38:53.928744,245.947502
119,0.0,38.2,2022-07-21 09:38:55.931169,247.949927
120,0.0,38.2,2022-07-21 09:38:57.932839,249.951597
121,1.0,38.2,2022-07-21 09:38:59.935396,251.954154
122,1.0,38.2,2022-07-21 09:39:01.938945,253.957703
123,2.0,38.2,2022-07-21 09:39:03.941846,255.960604
124,2.1,38.2,2022-07-21 09:39:05.946089,257.964847
125,2.0,38.2,2022-07-21 09:39:07.948872,259.96763
126,2.1,38.2,2022-07-21 09:39:09.951201,261.969959
127,3.1,38.2,2022-07-21 09:39:11.953878,263.972636
128,3.2,37.1,2022-07-21 09:39:13.957628,265.976386
129,2.1,37.1,2022-07-21 09:39:15.960691,267.979449
130,3.1,37.1,2022-07-21 09:39:17.962123,269.980881
131,3.1,37.1,2022-07-21 09:39:19.965312,271.98407
132,3.2,37.1,2022-07-21 09:39:21.968747,273.987505
133,4.2,37.1,2022-07-21 09:39:23.970944,275.989702
134,2.0,37.1,2022-07-21 09:39:25.973122,277.99188
135,5.2,37.1,2022-07-21 09:39:27.976713,279.995471
136,2.1,37.1,2022-07-21 09:39:29.978570,281.997328
137,1.0,37.1,2022-07-21 09:39:31.981168,283.999926
138,2.1,37.1,2022-07-21 09:39:33.984600,286.003358
139,3.1,37.1,2022-07-21 09:39:35.985506,288.004264
140,1.0,37.1,2022-07-21 09:39:37.987777,290.006535
141,1.0,37.1,2022-07-21 09:39:39.989774,292.008532
142,2.0,37.1,2022-07-21 09:39:41.993217,294.011975
143,1.0,37.1,2022-07-21 09:39:43.996209,296.014967
144,1.0,37.1,2022-07-21 09:39:45.999107,298.017865
145,2.0,37.1,2022-07-21 09:39:48.001992,300.02075
146,1.0,37.1,2022-07-21 09:39:50.005633,302.024391
147,2.0,37.1,2022-07-21 09:39:52.009530,304.028288
148,2.1,37.1,2022-07-21 09:39:54.012630,306.031388
149,1.0,37.1,2022-07-21 09:39:56.015655,308.034413
150,1.0,37.1,2022-07-21 09:39:58.017336,310.036094
151,2.1,37.1,2022-07-21 09:40:00.020275,312.039033
152,2.1,37.1,2022-07-21 09:40:02.022227,314.040985
153,0.0,37.1,2022-07-21 09:40:04.024874,316.043632
154,4.0,37.1,2022-07-21 09:40:06.028398,318.047156
155,2.1,37.1,2022-07-21 09:40:08.031723,320.050481
156,1.1,37.1,2022-07-21 09:40:10.033833,322.052591
157,4.1,37.1,2022-07-21 09:40:12.037405,324.056163
158,3.1,37.1,2022-07-21 09:40:14.040830,326.059588
159,2.1,37.1,2022-07-21 09:40:16.043898,328.062656
160,1.1,37.1,2022-07-21 09:40:18.045958,330.064716
161,0.0,37.1,2022-07-21 09:40:20.049819,332.068577
162,2.1,37.1,2022-07-21 09:40:22.052795,334.071553
163,3.1,37.1,2022-07-21 09:40:24.056643,336.075401
164,2.1,37.1,2022-07-21 09:40:26.059826,338.078584
165,3.1,37.1,2022-07-21 09:40:28.062302,340.08106
166,3.1,37.1,2022-07-21 09:40:30.065761,342.084519
167,2.1,37.1,2022-07-21 09:40:32.068988,344.087746
168,2.1,37.1,2022-07-21 09:40:34.071776,346.090534
169,2.1,37.1,2022-07-21 09:40:36.076141,348.094899
170,0.0,37.1,2022-07-21 09:40:38.077765,350.096523
171,2.1,37.1,2022-07-21 09:40:40.081329,352.100087
172,2.0,37.1,2022-07-21 09:40:42.084748,354.103506
173,3.0,37.1,2022-07-21 09:40:44.086312,356.10507
174,1.0,37.1,2022-07-21 09:40:46.092873,358.111631
175,1.0,37.1,2022-07-21 09:40:48.094316,360.113074
176,1.0,37.1,2022-07-21 09:40:50.097662,362.11642
177,0.0,37.1,2022-07-21 09:40:52.100677,364.119435
178,1.0,37.1,2022-07-21 09:40:54.102664,366.121422
179,0.0,37.1,2022-07-21 09:40:56.105110,368.123868
180,1.0,37.1,2022-07-21 09:40:58.108025,370.126783
181,3.1,37.1,2022-07-21 09:41:00.110628,372.129386
182,2.0,37.1,2022-07-21 09:41:02.113517,374.132275
183,0.0,37.1,2022-07-21 09:41:04.117374,376.136132
184,1.0,37.1,2022-07-21 09:41:06.120499,378.139257
185,1.0,37.1,2022-07-21 09:41:08.123173,380.141931
186,1.1,37.1,2022-07-21 09:41:10.125331,382.144089
187,2.1,37.1,2022-07-21 09:41:12.128311,384.147069
188,2.1,37.1,2022-07-21 09:41:14.132308,386.151066
189,2.1,37.1,2022-07-21 09:41:16.134340,388.153098
190,2.1,37.1,2022-07-21 09:41:18.137424,390.156182
191,1.0,37.1,2022-07-21 09:41:20.140705,392.159463
192,1.1,37.1,2022-07-21 09:41:22.143510,394.162268
193,4.1,37.1,2022-07-21 09:41:24.147915,396.166673
194,3.1,37.1,2022-07-21 09:41:26.150029,398.168787
195,5.1,37.1,2022-07-21 09:41:28.153712,400.17247
196,1.0,37.1,2022-07-21 09:41:30.157416,402.176174
197,3.1,37.1,2022-07-21 09:41:32.161489,404.180247
198,1.0,37.1,2022-07-21 09:41:34.165450,406.184208
199,2.0,37.1,2022-07-21 09:41:36.168062,408.18682
200,1.0,37.1,2022-07-21 09:41:38.169477,410.188235
201,2.1,37.1,2022-07-21 09:41:40.172952,412.19171
202,1.0,37.1,2022-07-21 09:41:42.174715,414.193473
203,0.0,37.1,2022-07-21 09:41:44.178053,416.196811
204,3.1,37.1,2022-07-21 09:41:46.180593,418.199351
205,1.0,37.1,2022-07-21 09:41:48.183510,420.202268
