timestamp,Destination_Port,Flow_Duration,Total_Fwd_Packets,Label,predicted_Label
2022-08-02 14:14:41,137,0.47237229347229,0,BENIGN,BENIGN
2022-08-02 14:14:42,137,11.752178192138672,0,BENIGN,BENIGN
2022-08-02 14:14:44,137,12.753562211990356,0,BENIGN,BENIGN
2022-08-02 14:14:45,55405,14.807917833328249,0,BENIGN,BENIGN
2022-08-02 14:14:55,137,15.831987380981444,0,BENIGN,BENIGN
2022-08-02 14:14:56,137,15.831987380981444,0,BENIGN,BENIGN
2022-08-02 14:14:56,1665,0.9985301494598388,24,BENIGN,BENIGN
2022-08-02 14:14:56,1665,0.8584043979644775,32,BENIGN,BENIGN
2022-08-02 14:14:57,137,15.831987380981444,0,BENIGN,BENIGN
2022-08-02 14:14:57,1700,2.1286654472351074,42,BENIGN,BENIGN
2022-08-02 14:14:58,1700,1.9885926246643064,67,BENIGN,BENIGN
2022-08-02 14:14:59,137,15.831987380981444,0,BENIGN,BENIGN
2022-08-02 14:14:59,80,3.553135871887207,67,BENIGN,BENIGN
2022-08-02 14:14:59,80,3.413018226623535,91,BENIGN,BENIGN
2022-08-02 14:15:00,137,15.831987380981444,0,BENIGN,BENIGN
2022-08-02 14:15:00,1750,4.75062108039856,92,BENIGN,BENIGN
2022-08-02 14:15:00,1750,4.610543251037598,123,BENIGN,BENIGN
2022-08-02 14:15:01,137,15.831987380981444,0,BENIGN,BENIGN
2022-08-02 14:15:01,80,5.945753812789917,118,BENIGN,BENIGN
2022-08-02 14:15:01,80,5.805643320083618,147,BENIGN,BENIGN
2022-08-02 14:15:02,137,15.831987380981444,0,BENIGN,BENIGN
2022-08-02 14:15:02,1801,7.123317003250122,147,BENIGN,BENIGN
2022-08-02 14:15:02,1801,6.983237028121948,174,BENIGN,BENIGN
2022-08-02 14:15:03,137,15.831987380981444,0,BENIGN,BENIGN
2022-08-02 14:15:03,1694,8.274859189987183,169,BENIGN,BENIGN
2022-08-02 14:15:03,1694,8.13473391532898,204,BENIGN,BENIGN
2022-08-02 14:15:05,137,15.831987380981444,0,BENIGN,BENIGN
2022-08-02 14:15:05,80,9.265567541122437,174,BENIGN,BENIGN
2022-08-02 14:15:05,80,9.125444889068604,219,BENIGN,BENIGN
2022-08-02 14:15:06,137,15.831987380981444,0,BENIGN,BENIGN
2022-08-02 14:15:06,80,10.756366968154907,186,BENIGN,BENIGN
2022-08-02 14:15:06,80,10.61797308921814,243,BENIGN,BENIGN
2022-08-02 14:15:07,137,15.831987380981444,0,BENIGN,BENIGN
2022-08-02 14:15:07,80,12.166953802108765,203,BENIGN,BENIGN
2022-08-02 14:15:07,80,12.026833534240724,259,BENIGN,BENIGN
2022-08-02 14:15:08,137,15.831987380981444,0,BENIGN,BENIGN
2022-08-02 14:15:09,1885,13.458929777145386,233,BENIGN,BENIGN
2022-08-02 14:15:09,1885,13.318752527236938,284,BENIGN,BENIGN
2022-08-02 14:15:10,137,15.831987380981444,0,BENIGN,BENIGN
2022-08-02 14:15:10,80,14.690903663635254,260,BENIGN,BENIGN
2022-08-02 14:15:10,80,14.550787687301636,315,BENIGN,BENIGN
2022-08-02 14:15:11,137,15.831987380981444,0,BENIGN,BENIGN
2022-08-02 14:15:11,80,15.844359636306764,288,BENIGN,BENIGN
2022-08-02 14:15:11,80,15.704593896865845,347,BENIGN,BENIGN
2022-08-02 14:15:12,137,15.831987380981444,0,BENIGN,BENIGN
2022-08-02 14:15:12,80,16.997756481170654,312,BENIGN,BENIGN
2022-08-02 14:15:12,80,16.857633352279663,371,BENIGN,BENIGN
2022-08-02 14:15:13,137,15.831987380981444,0,BENIGN,BENIGN
2022-08-02 14:15:13,80,18.21330666542053,331,BENIGN,BENIGN
2022-08-02 14:15:13,80,18.073182582855225,403,BENIGN,BENIGN
2022-08-02 14:15:14,137,15.831987380981444,0,BENIGN,BENIGN
2022-08-02 14:15:14,2016,19.34916090965271,363,BENIGN,BENIGN
2022-08-02 14:15:14,2016,19.20915508270264,437,BENIGN,BENIGN
2022-08-02 14:15:16,137,15.831987380981444,0,BENIGN,BENIGN
2022-08-02 14:15:16,80,20.425044536590576,388,BENIGN,BENIGN
2022-08-02 14:15:16,80,20.28492307662964,467,BENIGN,BENIGN
2022-08-02 14:15:17,137,15.831987380981444,0,BENIGN,BENIGN
2022-08-02 14:15:17,1744,21.726101875305176,409,BENIGN,BENIGN
2022-08-02 14:15:17,1744,21.585978031158447,494,BENIGN,BENIGN
2022-08-02 14:15:18,137,15.831987380981444,0,BENIGN,BENIGN
2022-08-02 14:15:18,80,22.984171390533447,414,BENIGN,BENIGN
2022-08-02 14:15:19,80,22.844045162200928,515,BENIGN,BENIGN
2022-08-02 14:15:20,137,15.831987380981444,0,BENIGN,BENIGN
2022-08-02 14:15:20,2085,24.649609565734863,432,BENIGN,BENIGN
2022-08-02 14:15:20,2085,24.50956010818481,533,BENIGN,BENIGN
2022-08-02 14:15:21,137,15.831987380981444,0,BENIGN,BENIGN
2022-08-02 14:15:21,2112,25.865411281585693,456,BENIGN,BENIGN
2022-08-02 14:15:21,2112,25.725232362747192,560,BENIGN,BENIGN
2022-08-02 14:15:22,137,15.831987380981444,0,BENIGN,BENIGN
2022-08-02 14:15:22,2138,27.055675745010376,480,BENIGN,BENIGN
2022-08-02 14:15:22,2138,26.915600299835205,586,BENIGN,BENIGN
2022-08-02 14:15:24,137,15.831987380981444,0,BENIGN,BENIGN
2022-08-02 14:15:24,80,28.42292952537537,509,BENIGN,BENIGN
2022-08-02 14:15:24,80,28.28280735015869,611,BENIGN,BENIGN
2022-08-02 14:15:25,137,15.831987380981444,0,BENIGN,BENIGN
2022-08-02 14:15:25,2177,30.08574366569519,518,BENIGN,BENIGN
2022-08-02 14:15:25,2177,29.951738595962524,627,BENIGN,BENIGN
2022-08-02 14:15:26,137,15.831987380981444,0,BENIGN,BENIGN
2022-08-02 14:15:26,2196,31.231148958206177,542,BENIGN,BENIGN
2022-08-02 14:15:26,2196,31.09106969833374,646,BENIGN,BENIGN
2022-08-02 14:15:27,137,15.831987380981444,0,BENIGN,BENIGN
2022-08-02 14:15:28,2212,32.499579191207886,558,BENIGN,BENIGN
2022-08-02 14:15:28,2212,32.359540939331055,662,BENIGN,BENIGN
2022-08-02 14:15:29,137,15.831987380981444,0,BENIGN,BENIGN
2022-08-02 14:15:29,80,33.63397455215454,578,BENIGN,BENIGN
2022-08-02 14:15:29,80,33.49384927749634,683,BENIGN,BENIGN
2022-08-02 14:15:30,137,15.831987380981444,0,BENIGN,BENIGN
2022-08-02 14:15:30,2246,34.82577657699585,590,BENIGN,BENIGN
2022-08-02 14:15:30,2246,34.68569779396057,712,BENIGN,BENIGN
2022-08-02 14:15:32,137,15.831987380981444,0,BENIGN,BENIGN
2022-08-02 14:15:32,80,35.68896770477295,605,BENIGN,BENIGN
2022-08-02 14:15:32,80,35.54884362220764,723,BENIGN,BENIGN
2022-08-02 14:15:33,137,15.831987380981444,0,BENIGN,BENIGN
2022-08-02 14:15:33,2283,37.70841145515442,630,BENIGN,BENIGN
2022-08-02 14:15:33,2283,37.56860494613648,749,BENIGN,BENIGN
2022-08-02 14:15:34,137,15.831987380981444,0,BENIGN,BENIGN
2022-08-02 14:15:34,80,38.86364483833313,652,BENIGN,BENIGN
2022-08-02 14:15:34,80,38.72351956367493,779,BENIGN,BENIGN
2022-08-02 14:15:35,137,15.831987380981444,0,BENIGN,BENIGN
2022-08-02 14:15:35,2313,39.3473424911499,654,BENIGN,BENIGN
2022-08-02 14:15:35,2313,39.20726490020752,787,BENIGN,BENIGN
2022-08-02 14:15:36,137,15.831987380981444,0,BENIGN,BENIGN
2022-08-02 14:15:36,80,41.17270803451538,713,BENIGN,BENIGN
2022-08-02 14:15:36,80,41.03258538246155,843,BENIGN,BENIGN
2022-08-02 14:15:37,137,15.831987380981444,0,BENIGN,BENIGN
2022-08-02 14:15:37,80,42.23027563095093,727,BENIGN,BENIGN
2022-08-02 14:15:38,80,42.09015440940857,867,BENIGN,BENIGN
2022-08-02 14:15:39,137,15.831987380981444,0,BENIGN,BENIGN
2022-08-02 14:15:39,80,43.6164436340332,749,BENIGN,BENIGN
2022-08-02 14:15:39,80,43.47721290588379,899,BENIGN,BENIGN
2022-08-02 14:15:40,137,15.831987380981444,0,BENIGN,BENIGN
2022-08-02 14:15:40,2426,44.87395739555359,769,BENIGN,BENIGN
2022-08-02 14:15:40,2426,44.73387956619263,929,BENIGN,BENIGN
2022-08-02 14:15:41,137,15.831987380981444,0,BENIGN,BENIGN
2022-08-02 14:15:41,80,46.10552763938904,800,BENIGN,BENIGN
2022-08-02 14:15:41,80,45.96540403366089,955,BENIGN,BENIGN
2022-08-02 14:15:42,137,15.831987380981444,0,BENIGN,BENIGN
2022-08-02 14:15:42,80,47.25536060333252,827,BENIGN,BENIGN
2022-08-02 14:15:42,80,47.11523699760437,987,BENIGN,BENIGN
2022-08-02 14:15:43,137,15.831987380981444,0,BENIGN,BENIGN
2022-08-02 14:15:43,2506,48.38993000984192,848,BENIGN,BENIGN
2022-08-02 14:15:44,2506,48.24985122680664,1026,BENIGN,BENIGN
2022-08-02 14:15:45,137,15.831987380981444,0,BENIGN,BENIGN
2022-08-02 14:15:45,2529,49.64316940307617,871,BENIGN,BENIGN
2022-08-02 14:15:45,2529,49.50308966636658,1059,BENIGN,BENIGN
2022-08-02 14:15:46,137,15.831987380981444,0,BENIGN,BENIGN
2022-08-02 14:15:46,2548,50.85203576087952,894,BENIGN,BENIGN
2022-08-02 14:15:46,2548,50.71196484565735,1078,BENIGN,BENIGN
2022-08-02 14:15:47,137,15.831987380981444,0,BENIGN,BENIGN
2022-08-02 14:15:47,2583,51.916619300842285,926,BENIGN,BENIGN
2022-08-02 14:15:47,2583,51.77654719352722,1113,BENIGN,BENIGN
2022-08-02 14:15:48,137,15.831987380981444,0,BENIGN,BENIGN
2022-08-02 14:15:48,80,53.13719964027405,955,BENIGN,BENIGN
2022-08-02 14:15:48,80,52.99707794189453,1139,BENIGN,BENIGN
2022-08-02 14:15:49,137,15.831987380981444,0,BENIGN,BENIGN
2022-08-02 14:15:49,80,54.3459792137146,985,BENIGN,BENIGN
2022-08-02 14:15:49,80,54.20585012435913,1171,BENIGN,BENIGN
2022-08-02 14:15:50,137,15.831987380981444,0,BENIGN,BENIGN
2022-08-02 14:15:50,80,55.45027565956116,1068,BENIGN,BENIGN
2022-08-02 14:15:50,80,55.31024885177612,1275,BENIGN,BENIGN
2022-08-02 14:15:51,137,15.831987380981444,0,BENIGN,BENIGN
2022-08-02 14:15:51,80,56.48596429824829,1171,BENIGN,BENIGN
2022-08-02 14:15:51,80,56.34583520889282,1379,BENIGN,BENIGN
